<svg xmlns="http://www.w3.org/2000/svg" x="0px" y="0px" viewBox="0 0 80 60">
<path d="M63.3,20.3c-0.8-0.1-1.7-0.1-2.1-0.5c-0.1-0.1-0.2-0.3-0.3-0.5c-0.3-0.6-0.7-1-1.2-1.4c-0.6-0.3-1.4-0.4-2.1-0.4l-6.4,0.1 c-0.6,0-1.3,0.3-1.8,0.6c-0.8,0.5-1.3,0.8-2.7-0.3c-0.1-0.1-0.3-0.2-0.5-0.2c-1.3-1-3-1.6-4.7-1.7c-1.1,0-2.1,0.1-3.2,0.3 c-1.2,0.3-2.5,0.3-3.7,0.2c-0.6-0.2-1.3-0.4-1.9-0.6c-1.3-0.5-2.8-1.1-4.4-0.7c-0.6,0.2-1.2,0.5-1.8,0.8c-0.2,0.2-0.5,0.3-0.8,0.4 c-1.2,0.6-2.7,0.5-4.3,0.4c-1.6-0.2-3.3,0-4.9,0.4c-1.5,0.6-2.7,1.7-3.4,3.1c-0.6,1.1-1,1.6-1.8,1.8H11c-0.3,0-0.6,0-0.9-0.1 c-1.9-0.3-5.3-0.9-9,3.5c-0.8,1-0.2,1.8,3.8,6.4l1,1.1c-0.4,0.5-0.7,1.1-0.7,1.8c0.1,1.6,1.5,2.8,3.1,4.1c0.9,0.8,2.2,1.9,2.3,2.4v0 c0.9,8.3,10,15.5,20.3,16c0.5,0,0.9,0,1.4,0c4.5,0,8.8-1,12.9-2.2c3.5-1,7.4-2.2,9.6-5c2-2.5,2.1-5.4,2.1-8.2c0-2.2,0.1-4.2,1-6 c0.2-0.4,0.5-1.1,0.9-2.1c0.5-1.4,1.1-2.8,1.8-4.1l1.5-1c3.7-2.4,4.8-3.2,5.2-3.8c0.8-1.2,0.7-2.8-0.3-3.8 C65.9,20.5,64.5,20.4,63.3,20.3z M31.5,30.4L31.5,30.4c-1.4-0.2-5.3-3.8-6.5-5.4l-0.1-0.1c1.1-0.3,2.1-0.7,3.1-1.2 c0.9-0.5,1.8-0.9,2.8-1.1c1.7-0.3,3.5,0.5,5.3,1.3c0.7,0.3,1.4,0.6,2.1,0.9h0.1c0.4,0.1,0.8,0.3,1.2,0.4c0.7,0.2,1.4,0.5,2.1,0.9 l0.2,0.1l0.1,0.1c-1.2,0.4-2.2,1.1-3,2.1c-0.8,0.9-1.4,1.4-2,1.4c-0.3,0-0.6-0.1-0.9-0.3c-0.3-0.1-0.6-0.2-0.8-0.3 C34,28.8,32.6,29.2,31.5,30.4z M45.2,27c0-1.4-1.1-2.2-2-2.7l1.2-0.1c2-0.1,3.9-0.3,5.9-0.7c1.2,0.2,2.3,0.7,3.3,1.5V25 c-0.9,0.3-1.8,0.7-2.6,1.2L50,26.7c-1.6,0.8-2.8,1-3.8,0.7C45.9,27.3,45.5,27.2,45.2,27z M17.6,19.6c1.3-0.3,2.7-0.4,4-0.3 c1.8,0.1,3.7,0.2,5.4-0.6c0.4-0.2,0.7-0.4,1-0.5c0.4-0.2,0.7-0.4,1.1-0.6c0.9-0.2,1.9,0.1,3,0.6c0.7,0.3,1.5,0.5,2.2,0.7 c1.5,0.2,3,0.2,4.5-0.2c0.9-0.2,1.8-0.3,2.8-0.3c2.1,0,3.9,1.6,5.7,3.2c-1,0.1-2.1,0.2-3.1,0.2c-1.8,0.1-3.7,0.3-5.5,0.6 c-0.5-0.2-1.1-0.4-1.6-0.7c-2.1-0.9-4.2-1.9-6.6-1.5c-1.3,0.2-2.5,0.7-3.6,1.3c-1.3,0.7-2.4,1.2-3.6,1.1h-0.1 c-0.6-0.8-1.4-1.4-2.3-1.9c-0.8-0.4-1.7-0.5-2.6-0.3c-0.6,0.2-1.2,0.6-1.7,1.1c-0.1,0.2-0.3,0.3-0.5,0.4c-0.3,0.2-0.7,0.3-1.1,0.3 l0.4-0.6C16,20.8,16.5,20,17.6,19.6z M3.3,26.7c2.6-2.8,4.8-2.4,6.3-2.2c0.4,0.1,0.9,0.1,1.3,0.1h0.2h0.1c0.6,0,1.2,0,1.7,0 c1.4,0.1,3.1,0.2,4.4-0.7c0.3-0.2,0.5-0.5,0.8-0.7c0.2-0.2,0.4-0.4,0.7-0.5c0.3-0.1,0.7,0,1,0.2c1.2,0.6,2,1.7,2.9,2.9l0.4,0.5 c0.9,1.1,1.9,2.2,3,3.2c-1.1,0-2.1,0.2-3.1,0.8c-0.3,0.2-0.6,0.4-0.9,0.6c-0.4,0.3-0.8,0.6-1.3,0.8c-0.7,0.1-1.4-0.2-2.3-0.7 c-0.5-0.2-0.9-0.5-1.4-0.6c-3.1-1.2-6.5,0.2-9.3,1.6c-0.2-0.3-0.6-0.7-1.1-1.3C5.7,29.6,4,27.6,3.3,26.7z M12.8,41.4 c0,0,0-0.1,0-0.1c-0.2-1.5-1.6-2.7-3.1-3.9c-0.9-0.8-2.3-1.9-2.3-2.5c0,0,0-0.3,1.1-0.8c2.6-1.3,5.4-2.5,7.7-1.6 c0.4,0.2,0.8,0.3,1.2,0.5c1.1,0.6,2.4,1.2,3.8,0.9c0.8-0.2,1.5-0.6,2.1-1.1c0.3-0.2,0.5-0.4,0.8-0.5c1.1-0.6,2.4-0.6,3.5-0.1 c0.8,0.3,1.5,0.9,1.9,1.7c-0.1,0.3-0.2,0.6-0.2,0.9c-1-0.5-2-0.7-3.1-0.8c-1.7,0-3.4,0.5-4.8,1.4c-1.1,0.7-2.7,1.8-2.9,3.4 c-0.2,1.5,0.8,2.8,1.4,3.6c3.2,4.2,6.5,8.5,10.9,12.2l0.2,0.2c0.3,0.2,0.6,0.5,0.8,0.7h-1C21.7,54.9,13.6,48.6,12.8,41.4z M38.8,46 c-0.2,3.2-0.3,6.6-1.9,8.9c-0.7,0.1-1.4,0.2-2,0.2c-0.6-0.9-1.3-1.7-2.2-2.3l-0.2-0.2C28.2,49.2,25,45,21.9,40.9 c-0.4-0.6-1-1.4-1-1.9c0-0.3,0.3-0.9,1.8-1.8c1-0.7,2.2-1.1,3.4-1.1c1.1,0.1,2.1,0.5,3.1,1c1.4,0.6,2.9,1.4,4.8,1.1 c0.6-0.1,1.2-0.3,1.8-0.5c0.2-0.1,0.3-0.1,0.5-0.2c1.4-0.6,3-0.7,4.5-0.2c-0.9,1.7-1.6,3.6-1.8,5.5C38.9,43.8,38.8,44.9,38.8,46 L38.8,46z M56.5,33.3c-0.3,0.8-0.6,1.6-0.8,1.9c-1.2,2.2-1.2,4.6-1.2,7c0,2.5-0.1,4.9-1.6,6.8c-1.8,2.2-5.3,3.4-8.5,4.2 c-1.5,0.4-3.1,0.8-4.7,1.2c1-2.5,1.2-5.5,1.3-8.2c0.1-1.1,0.1-2.1,0.2-3c0.4-3.6,2.4-7.8,6.8-8.5l0.8-0.1c0.6-0.1,1.3-0.2,1.9-0.4 c1-0.4,2-1,2.8-1.8c1-0.8,1.7-1.3,2.3-1.3c0.1,0,0.3,0,0.4,0.1c0.3,0.1,0.7,0.1,1,0C57.1,31.8,56.8,32.5,56.5,33.3L56.5,33.3z M57,28.8c-2-0.6-3.6,0.7-4.8,1.7c-0.6,0.6-1.3,1-2.1,1.4c-0.5,0.1-1,0.2-1.4,0.3c-0.3,0-0.6,0.1-0.9,0.1c-2.2,0.4-4.1,1.5-5.6,3.1 c-2.1-0.9-4.5-0.9-6.7,0c-0.2,0.1-0.4,0.1-0.6,0.2c-0.4,0.2-0.9,0.3-1.3,0.4c-0.7,0.1-1.3,0-1.9-0.3c-0.1-1.2,0.4-2.5,1.2-3.4 c0.6-0.7,1.3-1.1,1.7-1c0.2,0.1,0.4,0.1,0.6,0.2c0.5,0.2,1,0.4,1.5,0.4c1.7,0.1,2.9-1.1,3.8-2.1c0.7-0.7,1.3-1.4,2-1.4 c0.6,0,1.1,0.2,1.5,0.6c0.5,0.3,0.9,0.5,1.4,0.6c1.5,0.5,3.4,0.2,5.6-0.9l1-0.5c1-0.6,2.1-1,3.2-1.3c1.2-0.1,2.3,0.4,3.1,1.3 C57.9,28.6,57.4,28.8,57,28.8L57,28.8z M65.2,24c-1.4,1.1-2.9,2.2-4.5,3.1l-0.3,0.2c-1-1.5-2.7-2.5-4.6-2.6 c-0.1-0.4-0.3-0.8-0.5-1.1c-1.4-1.3-3.1-2.1-4.9-2.4l-0.6-0.4c0.3-0.1,0.6-0.3,0.8-0.5c0.2-0.1,0.4-0.2,0.6-0.3l6.4-0.1 c0.3,0,0.6,0,0.9,0.1c0.1,0.1,0.3,0.3,0.3,0.5c0.2,0.3,0.4,0.7,0.7,0.9c0.9,1,2.3,1.1,3.5,1.2c0.7,0,1.4,0.1,2.1,0.5 C65.5,23.4,65.3,23.8,65.2,24L65.2,24z"/>
<path d="M54.2,6.9h0.1c0.4,0,0.7-0.3,0.8-0.7l0.7-4.6c0-0.2,0-0.4-0.1-0.6c-0.1-0.2-0.3-0.3-0.5-0.3c-0.2,0-0.4,0-0.6,0.1 s-0.3,0.3-0.3,0.5L53.6,6c0,0.2,0,0.4,0.1,0.6C53.8,6.8,54,6.9,54.2,6.9z"/>
<path d="M71.7,7l-3,3.8c-0.1,0.2-0.2,0.4-0.2,0.6c0,0.2,0.1,0.4,0.3,0.5c0.1,0.1,0.3,0.2,0.5,0.2c0.2,0,0.5-0.1,0.6-0.3l3-3.8 c0.3-0.3,0.2-0.8-0.1-1.1c-0.2-0.1-0.4-0.2-0.6-0.2C72,6.7,71.9,6.8,71.7,7z"/>
<path d="M78.7,22.6L76,22.9c-0.4,0-0.8,0.4-0.7,0.8c0,0.4,0.4,0.8,0.8,0.7h0.1l2.7-0.3c0.4,0,0.7-0.4,0.7-0.8 C79.5,22.8,79.1,22.5,78.7,22.6z"/>
<path d="M12.3,55.1l-3.4,3.5c-0.3,0.3-0.3,0.8,0,1.1c0.1,0.1,0.3,0.2,0.5,0.2s0.4-0.1,0.5-0.2l3.4-3.5c0.3-0.3,0.3-0.8,0-1.1 C13.1,54.8,12.6,54.8,12.3,55.1z"/>
<path d="M4.9,44.5l-3,0.3c-0.4,0-0.8,0.4-0.7,0.8c0,0.4,0.4,0.8,0.8,0.7H2l3-0.3c0.4,0,0.7-0.4,0.7-0.8C5.7,44.7,5.3,44.4,4.9,44.5z"/>
</svg>
