<svg xmlns="http://www.w3.org/2000/svg" x="0px" y="0px" viewBox="0 0 38 25">
  <path d="M12.3,0.8C5.9,0.8,0.7,6.1,0.7,12.5c0,6.4,5.2,11.7,11.7,11.7h13.3c6.4,0,11.7-5.2,11.7-11.7c0-6.4-5.2-11.7-11.7-11.7H12.3
	z M34,12.5c0,4.6-3.7,8.3-8.3,8.3H12.3c-4.6,0-8.3-3.7-8.3-8.3c0-4.6,3.7-8.3,8.3-8.3h13.3C30.3,4.2,34,7.9,34,12.5z"/>
  <circle cx="12.3" cy="12.5" r="5"/>
</svg>
