<svg xmlns="http://www.w3.org/2000/svg" x="0px" y="0px" viewBox="0 0 15 15">
  <path d="M7.5,6.3C8,6.3,8.5,6.2,9,6c2.1-1.1,1.6-2.7,1.1-3.8l0,0L9.7,1.5c0,0,0,0,0-0.1L9.2,0.9c0,0,0,0,0,0
	C8.6,0.4,7.7,0.2,7,0.4C6,0.6,5.1,1.3,4.8,2.1C4.5,2.9,4.2,4.2,5.2,5.3C5.8,5.9,6.6,6.3,7.5,6.3z M5.4,2.3C5.7,1.7,6.4,1.1,7.1,1
	c0.1,0,0.3,0,0.4,0c0.4,0,0.8,0.1,1.1,0.4l0.4,0.5l0.3,0.6c0.7,1.5,0.5,2.3-0.8,3C7.6,6,6.3,5.6,5.7,4.9C5.1,4.3,5,3.5,5.4,2.3z"/>
  <path d="M13.5,13.4c-0.1-0.8-0.2-1.7-0.4-2.5c0-0.1-0.1-0.3-0.1-0.4c-0.2-0.9-0.5-2-1.2-2.7
	C11,7,10.2,6.9,9.3,6.9c-0.2,0-0.3,0-0.5,0c-1-0.1-2,0-2.9,0.2c-0.1,0-0.2,0-0.4,0.1C4.6,7.3,3.3,7.5,2.9,8.3
	C2.5,9,2.3,9.7,2.1,10.4c0,0.1-0.1,0.3-0.1,0.4c-0.4,1.1-0.5,2.2-0.4,3.3c0,0.1,0.1,0.2,0.1,0.2l0.1,0.1c0.1,0,0.1,0.1,0.2,0.1
	c0.8,0,1.5,0,2.2,0.1c0.5,0,1,0.1,1.5,0.1c0.4,0,0.8,0,1.2,0c1,0,2.1,0,3.2-0.1c0.4,0,0.8,0,1.2,0c0.3,0,0.6,0,1,0l0.2,0
	c0.4,0,0.7,0,0.9-0.2C13.5,14.1,13.5,13.8,13.5,13.4z M12.8,13.8c-0.1,0-0.3,0-0.4,0l-0.2,0c-0.2,0-0.4,0-0.6,0
	c-0.1-0.5-0.2-1-0.3-1.5v0c0-0.1-0.1-0.3-0.1-0.4C11,11.6,11,11.4,11,11.1c-0.1-0.3-0.1-0.5-0.2-0.8c0-0.2-0.2-0.3-0.4-0.2
	c-0.1,0-0.3,0.2-0.3,0.3c0,0,0,0.1,0,0.1c0.1,0.3,0.1,0.5,0.2,0.8l0,0c0,0.2,0.1,0.5,0.1,0.7l0,0c0,0.2,0.1,0.3,0.1,0.5
	c0.1,0.4,0.2,0.9,0.3,1.4c-0.3,0-0.6,0-0.9,0C8.6,14,7.1,14,5.7,14c-0.5,0-1,0-1.5-0.1l-0.2,0c0.2-1,0.5-1.7,0.9-2.6
	c0.1-0.3,0.2-0.5,0.3-0.8c0.1-0.2,0-0.4-0.2-0.4c-0.2-0.1-0.4,0-0.4,0.2c-0.1,0.3-0.2,0.6-0.3,0.8c-0.4,0.9-0.7,1.7-0.9,2.8
	c-0.4,0-0.7,0-1.1,0c0-1,0.1-1.9,0.4-2.9c0-0.1,0.1-0.3,0.1-0.4c0.2-0.7,0.4-1.4,0.8-2c0.3-0.5,1.3-0.7,2.1-0.8c0.1,0,0.3,0,0.4-0.1
	c0.9-0.2,1.9-0.2,2.8-0.2c0.2,0,0.4,0,0.5,0c0.9,0,1.5,0,2.1,0.7s0.8,1.5,1,2.4c0,0.2,0.1,0.3,0.1,0.4c0.2,0.8,0.3,1.6,0.4,2.4
	C12.8,13.6,12.8,13.7,12.8,13.8z"/>
</svg>
